tvarGIRF • tvarGIRF
…
There is also a tidier for GIRFs (a la broom):

tidy(saved_girfs)

## # A tibble: 40 x 3
##    horizon variable  response
##      <int> <chr>        <dbl>
##  1       1 short.run  0.00591
##  2       2 short.run  0.0961 
##  3       3 short.run  0.203  
##  4       4 short.run  0.231  
##  5       5 short.run  0.233  
##  6       6 short.run  0.197  
##  7       7 short.run  0.201  
##  8       8 short.run  0.182  
##  9       9 short.run  0.141  
## 10      10 short.run  0.174  
## # … with 30 more rows
…
